10x8
0-w00;0-w00;0-w00;0-w00;0-w00;0-w00;0-w00;0-w00;0-w00;0-w00
0-w00;g01-e00;g01-0;g01-0;g01-0;g01-0;g01-0;g01-0;g01-0;0-w00
0-w00;g01-0;g01-0;g01-0;g01-0;g01-0;g01-0;g01-w03;g01-c02;0-w00
0-w00;g01-0;g01-0;g01-0;g01-c04;g01-cp04;g01-0;g01-w03;g01-0;0-w00
0-w00;g01-0;g01-0;g01-0;g01-0;g01-0;g01-0;g01-w03;g01-0;0-w00
0-w00;g01-0;g01-0;g01-0;g01-0;g01-0;g01-0;g01-w03;g01-0;0-w00
0-w00;g01-0;g01-0;g01-0;g01-0;g01-0;g01-0;g01-w03;g01-cp02;0-w00
0-w00;0-w00;0-w00;0-w00;0-w00;0-w00;0-w00;0-w00;0-w00;0-w00
